{
  "project_info": {
    "project_number": "1079680814552",
    "project_id": "demineur-361df",
    "storage_bucket": "demineur-361df.appspot.com"
  },
  "client": [
    {
      "client_info": {
        "mobilesdk_app_id": "1:1079680814552:android:b90150671b3efb93cff6ad",
        "android_client_info": {
          "package_name": "com.example.projetdemineur"
        }
      },
      "oauth_client": [
        {
          "client_id": "1079680814552-cg8mdlgffsa8cfklue54k26vr6j5ni9u.apps.googleusercontent.com",
          "client_type": 3
        }
      ],
      "api_key": [
        {
          "current_key": "AIzaSyAzqA6W7XG8WD514G6054jAu2RSDpyvK20"
        }
      ],
      "services": {
        "appinvite_service": {
          "other_platform_oauth_client": [
            {
              "client_id": "1079680814552-cg8mdlgffsa8cfklue54k26vr6j5ni9u.apps.googleusercontent.com",
              "client_type": 3
            }
          ]
        }
      }
    }
  ],
  "configuration_version": "1"
}